id,entity_id,legal_name,application_link,membership_description,membership_fees,membership_type_unique_key,minimum_investment,minimum_requirements
0f57984c-915e-45a6-b538-bf06733913f6,36d40225-bd42-4149-9a55-eb65b9c18201,China Canada Angels Alliance Ltd.,,,,Membership::MembershipType::Individual,,
19270c01-7954-4179-ad2d-2f1be2436852,a548f32c-05aa-457d-a27f-336bbddbbc55,Northern Ontario Angels,,,,Membership::MembershipType::Individual,,
413bd897-3fc9-47bc-a85a-39c3dc098019,36d40225-bd42-4149-9a55-eb65b9c18201,China Canada Angels Alliance Ltd.,,,,Membership::MembershipType::Corporate,,
49f4b9fa-ee78-456f-b190-3b8b5f39dd84,dc814b13-5bab-4afd-9def-c60e65258fff,Anges Quebec,https://angesquebec.com/en/entrepreneurs/submit-project/,,,Membership::MembershipType::Individual,,
5bf5fda4-0e9d-4c54-9e73-752845cb304b,bf21729a-5472-4fe1-8659-9b86f0e75af8,Angel One Network Inc.,http://angelonenetwork.ca/contact/,,1412.5,Membership::MembershipType::Individual,25000,
71573889-6a44-400f-8bf6-5b80270af108,8beeaf65-7862-4692-bf0a-97b14ca38724,Southwestern Ontario Angel Group,,,400,Membership::MembershipType::Individual,,
834dd5ce-46a4-45bf-9e42-4a4592accc32,a05774db-9e96-496c-8324-cff89124fe01,Open Angel Society,http://www.openangel.ca/apply/,,,Membership::MembershipType::Individual,,
9a63066d-894f-4b6d-9fe6-929dfc704003,3d01b1f8-4ffd-4b82-8e91-a71f855415e6,Southeastern Ontario Angel Network,,,,Membership::MembershipType::Individual,,
9eef2c9f-6ee2-4814-9427-ae056225874d,34cdab47-29ec-4215-99fb-1ec5ef688850,York Angel Investors Inc.,,,1500,Membership::MembershipType::Corporate,,
ad0c0308-ed57-4c1b-87bf-eefe8bf64700,8beeaf65-7862-4692-bf0a-97b14ca38724,Southwestern Ontario Angel Group,,,1000,Membership::MembershipType::Corporate,,
b4beee9c-06d2-4648-a215-1ccbcededce2,21658d9e-991e-45fb-8d80-68c9eb14a586,Maple Leaf Angels Corporation,,,,Membership::MembershipType::Individual,,
bbe5b023-cb00-434b-b509-2c6352114ea8,a548f32c-05aa-457d-a27f-336bbddbbc55,Northern Ontario Angels,http://www.northernontarioangels.ca/en/entrepreneurs/entrepreneur-form/,,,Membership::MembershipType::Corporate,,
bd874500-3d53-4982-bc2f-74e4e9288248,f2442571-1f29-4b85-ac86-39d76f1d3846,Golden Triangle Angel Network,,,,Membership::MembershipType::Individual,,
c6f9f7b3-abdf-438b-93b8-1ca3a74fea08,bf21729a-5472-4fe1-8659-9b86f0e75af8,Angel One Network Inc.,http://angelonenetwork.ca/contact/,,3390,Membership::MembershipType::Corporate,100000,
c8ab867b-a0b6-4df2-9542-50f1c3007154,ec87aa5e-7102-4864-b6c1-f399005eb3fd,VA Angels,,,,Membership::MembershipType::Individual,,
d09bf461-6331-4be6-bcd0-8c74f1dea3b4,34cdab47-29ec-4215-99fb-1ec5ef688850,York Angel Investors Inc.,,,975,Membership::MembershipType::Individual,,
e23ec499-7f28-4d52-8f44-1f98815f9ce8,9f524c3a-347e-42bb-bc0f-183cee23d523,XDL Capital Group,http://xdl.com/contact-us/,,,Membership::MembershipType::Individual,,
