id,entity_id,legal_name,vertical_unique_key,is_primary,is_preferred,is_operating,visibility
227c24ca-797e-4dac-b26e-d4c88f49a4f4,e23a7814-4028-4763-b8f8-322279a0d105,4371798 Canada Inc.,Verticals::LifeSciences,,true,,public
f2c23207-adaf-4314-a463-b35b17f6db10,e23a7814-4028-4763-b8f8-322279a0d105,4371798 Canada Inc.,Verticals::HealthTech,,true,,public
fe00ee0c-7497-4e77-b049-34ce7b9d7fdc,913f7a03-b5a9-44d5-a1f8-47b954a56be7,8705429 CANADA INC.,Verticals::FinTech,,true,,public
0822cfb0-c895-45ba-aa21-765f5a12b8e4,d755adb6-b775-4146-9483-f01ce6bd31cc,Advanced Biotechnologies Venture Fund,Verticals::LifeSciences,,true,,public
640fa421-a7cd-4230-b9af-f0c575fcfc5d,d755adb6-b775-4146-9483-f01ce6bd31cc,Advanced Biotechnologies Venture Fund,Verticals::HealthTech,,true,,public
1b8d5e2d-42a6-40df-8fed-db2925a32d5b,a937625f-a876-49b4-8ace-889468beccf8,AIP Private Capital,Verticals::FinTech,,true,,public
c784d803-736b-4880-b909-24b10b3897b4,a937625f-a876-49b4-8ace-889468beccf8,AIP Private Capital,Verticals::Infrastructure,,true,,public
c9325541-7ee7-40d3-aef9-a3518e663b02,a937625f-a876-49b4-8ace-889468beccf8,AIP Private Capital,Verticals::AgTech,,true,,public
4022d0e8-ea71-409f-aaf9-b62f025a2ed8,a937625f-a876-49b4-8ace-889468beccf8,AIP Private Capital,Verticals::HealthTech,,true,,public
7a736f14-cfb4-42b4-8b1c-6490c1958bd8,a937625f-a876-49b4-8ace-889468beccf8,AIP Private Capital,Verticals::BigData,,true,,public
f0e001c7-35d8-400d-9461-60a31775236a,a937625f-a876-49b4-8ace-889468beccf8,AIP Private Capital,Verticals::EdTech,,true,,public
2101b7e6-5d68-4bf5-a890-a94a58f26f79,a937625f-a876-49b4-8ace-889468beccf8,AIP Private Capital,Verticals::CleanTech,,true,,public
2a64e9b3-8ae8-4104-8658-91567fe2041a,a937625f-a876-49b4-8ace-889468beccf8,AIP Private Capital,Verticals::MarketingTech,,true,,public
2657e6ed-80b1-4238-a50b-3a85a3695a2c,a937625f-a876-49b4-8ace-889468beccf8,AIP Private Capital,Verticals::AdTech,,true,,public
123bf364-af4f-4ff6-9712-5f5e9e910731,a937625f-a876-49b4-8ace-889468beccf8,AIP Private Capital,Verticals::AudioTech,,true,,public
adc22a2d-1203-4af8-be19-bf358b337123,a937625f-a876-49b4-8ace-889468beccf8,AIP Private Capital,Verticals::InsurTech,,true,,public
05888dd7-66d2-4486-ab78-7d292680a838,c9b8023c-cea5-4c81-9f5f-b6c9f2acc453,Aligo Innovation,Verticals::HealthTech,,true,,public
8a587f6f-a396-4617-8bff-e0b1129348da,c9b8023c-cea5-4c81-9f5f-b6c9f2acc453,Aligo Innovation,Verticals::AdTech,,true,,public
60bbfe33-d5c5-4bf7-9727-0271497771d2,c9b8023c-cea5-4c81-9f5f-b6c9f2acc453,Aligo Innovation,Verticals::CleanTech,,true,,public
50eba716-8f52-4471-ab86-386900d7b189,c9b8023c-cea5-4c81-9f5f-b6c9f2acc453,Aligo Innovation,Verticals::FinTech,,true,,public
12acfc96-4c07-4494-8450-fa4a28b8342d,c9b8023c-cea5-4c81-9f5f-b6c9f2acc453,Aligo Innovation,Verticals::AudioTech,,true,,public
df9c3c5d-3214-4667-a830-1ffd1e28587d,c9b8023c-cea5-4c81-9f5f-b6c9f2acc453,Aligo Innovation,Verticals::Nanotechnology,,true,,public
e87f210e-a4fe-45bf-b34c-2b1954963fc7,c9b8023c-cea5-4c81-9f5f-b6c9f2acc453,Aligo Innovation,Verticals::MarketingTech,,true,,public
583d37c0-6ddb-416c-81a8-09e5bdb6ddd0,c9b8023c-cea5-4c81-9f5f-b6c9f2acc453,Aligo Innovation,Verticals::AgTech,,true,,public
7801c1a1-7584-4b80-ba37-7825cab23d72,f6fb6496-e668-47b4-be69-e2fea094a6e6,ArcTern Ventures,Verticals::CleanTech,,true,,public
e7e686f5-838b-492d-b600-eae45dd469b2,59d4c37c-4d52-4c5b-b376-4f7832203d9b,AVAC Ltd.,Verticals::AgTech,,true,,public
fbecb0fd-b8df-4dae-a3c3-8c77a2fc2c25,59d4c37c-4d52-4c5b-b376-4f7832203d9b,AVAC Ltd.,Verticals::HealthTech,,true,,public
e302711c-91f2-4088-8086-2ebe4ff7496c,59d4c37c-4d52-4c5b-b376-4f7832203d9b,AVAC Ltd.,Verticals::BigData,,true,,public
6a5f5949-c063-4373-9726-0bfb2166f419,e31e3eee-e623-4bf5-aaa8-2a3e78e2dd47,Azure Capital Partners,Verticals::EdTech,,true,,public
883c4a5a-3a04-4dc0-bb37-d1400893d9fd,e31e3eee-e623-4bf5-aaa8-2a3e78e2dd47,Azure Capital Partners,Verticals::CleanTech,,true,,public
ccae3ac6-969b-4da2-8fcd-cb335931e70e,e31e3eee-e623-4bf5-aaa8-2a3e78e2dd47,Azure Capital Partners,Verticals::MarketingTech,,true,,public
202d3a63-0c70-4817-93bf-368ca8478ef3,e31e3eee-e623-4bf5-aaa8-2a3e78e2dd47,Azure Capital Partners,Verticals::AdTech,,true,,public
8f54eee3-4c67-4e57-947b-6741ddbbc2e8,e31e3eee-e623-4bf5-aaa8-2a3e78e2dd47,Azure Capital Partners,Verticals::FinTech,,true,,public
217830fb-0e17-44ad-a0bd-c660fbd4775b,e31e3eee-e623-4bf5-aaa8-2a3e78e2dd47,Azure Capital Partners,Verticals::AudioTech,,true,,public
35453a12-bb60-487b-9b0c-921b228111b3,e31e3eee-e623-4bf5-aaa8-2a3e78e2dd47,Azure Capital Partners,Verticals::HealthTech,,true,,public
7af1ab7e-7dcf-4d5c-8c73-87f085708cc9,e31e3eee-e623-4bf5-aaa8-2a3e78e2dd47,Azure Capital Partners,Verticals::AgTech,,true,,public
8fcf33c6-3606-4a86-9957-570d74eaed6b,4e97dace-2a14-47e3-be8e-37ecdefff392,BC Advantage Funds,Verticals::LifeSciences,,true,,public
44cf14ef-fb5c-4015-b159-2850bc62085f,4e97dace-2a14-47e3-be8e-37ecdefff392,BC Advantage Funds,Verticals::CleanTech,,true,,public
5b6bd0c4-24d5-48a7-aded-d1b77ad09d71,4e97dace-2a14-47e3-be8e-37ecdefff392,BC Advantage Funds,Verticals::FinTech,,true,,public
21843515-c8c6-4400-8c52-e802f73e899a,4e97dace-2a14-47e3-be8e-37ecdefff392,BC Advantage Funds,Verticals::HealthTech,,true,,public
08248605-c220-4406-9820-f63a25bc1c88,4e97dace-2a14-47e3-be8e-37ecdefff392,BC Advantage Funds,Verticals::AgTech,,true,,public
c7d18bbd-1b79-43a0-abda-67d88582d4ac,4e97dace-2a14-47e3-be8e-37ecdefff392,BC Advantage Funds,Verticals::AdTech,,true,,public
6e7bf571-12a8-4b8e-ae12-fa65138698a5,51b1f570-54e6-4522-909b-6ceb71e9fb3f,BC Bioenergy Network,Verticals::CleanTech,,true,,public
f648d875-5118-4468-8e08-d980e79ac3a3,94ef9d7b-c714-4244-8ef6-c84138258bc8,BDC Capital INC.,Verticals::MarketingTech,,true,,public
a4535d2e-7815-47e0-a18d-a464e071cbae,94ef9d7b-c714-4244-8ef6-c84138258bc8,BDC Capital INC.,Verticals::EdTech,,true,,public
0f33c66c-4dbf-4063-b5ba-00bf38db8b04,94ef9d7b-c714-4244-8ef6-c84138258bc8,BDC Capital INC.,Verticals::CleanTech,,true,,public
2c70ad0e-29e5-4cb2-97b8-45ceb46af218,94ef9d7b-c714-4244-8ef6-c84138258bc8,BDC Capital INC.,Verticals::AdTech,,true,,public
ca1f21b8-c12f-4630-aea8-674a0379071b,94ef9d7b-c714-4244-8ef6-c84138258bc8,BDC Capital INC.,Verticals::FinTech,,true,,public
30e6cebf-b451-45b4-a127-3338d029f7e9,94ef9d7b-c714-4244-8ef6-c84138258bc8,BDC Capital INC.,Verticals::AudioTech,,true,,public
797d2f76-913f-4838-b75e-b38d726033cd,94ef9d7b-c714-4244-8ef6-c84138258bc8,BDC Capital INC.,Verticals::HealthTech,,true,,public
f2cb7314-546b-4661-8fe8-c602787da1a6,94ef9d7b-c714-4244-8ef6-c84138258bc8,BDC Capital INC.,Verticals::AgTech,,true,,public
c0d6b620-f53a-40b1-aabb-1dcce3e4a773,40ba6b9c-824b-4996-b2aa-bfde2dd95f40,BEST Funds,Verticals::Saas,,true,,public
e6ae1a5d-2956-4262-bf7b-6156d83a522d,40ba6b9c-824b-4996-b2aa-bfde2dd95f40,BEST Funds,Verticals::CleanTech,,true,,public
b0ff0879-1a3f-4019-b07a-5ac79bf98f6e,40ba6b9c-824b-4996-b2aa-bfde2dd95f40,BEST Funds,Verticals::FinTech,,true,,public
8c6d690d-f672-4704-860b-283d461ee997,40ba6b9c-824b-4996-b2aa-bfde2dd95f40,BEST Funds,Verticals::EdTech,,true,,public
26f21088-1637-4949-aa58-d65f54df4c87,40ba6b9c-824b-4996-b2aa-bfde2dd95f40,BEST Funds,Verticals::ECommerce,,true,,public
db68ab0c-e91d-4f3b-a69d-ff257e6c5616,40ba6b9c-824b-4996-b2aa-bfde2dd95f40,BEST Funds,Verticals::InsurTech,,true,,public
9bf31800-a885-4fc5-b513-408089bda8a9,40ba6b9c-824b-4996-b2aa-bfde2dd95f40,BEST Funds,Verticals::HealthTech,,true,,public
36460b1f-9e28-4750-a785-9dff00a2492c,7d792a9d-2a01-4e36-8250-a018abae225f,BrandProject LP,Verticals::ECommerce,,true,,public
a9c132a3-ec80-4234-99f2-7273a1d3e2b9,7d792a9d-2a01-4e36-8250-a018abae225f,BrandProject LP,Verticals::Manufacturing,,true,,public
de3cfe02-7005-43c5-8c50-284b6baec827,7d792a9d-2a01-4e36-8250-a018abae225f,BrandProject LP,Verticals::MarketingTech,,true,,public
26dafed7-6155-4db3-9d8c-4e288b760615,7d792a9d-2a01-4e36-8250-a018abae225f,BrandProject LP,Verticals::AdTech,,true,,public
d82b21fb-17d0-45d3-ab6e-de40979b6881,15279485-f914-41ff-b80c-d7ca3017dd79,Brightspark Capital Partners Inc.,Verticals::ECommerce,,true,,public
6fac5c4a-56e4-488e-8e42-ae57617b26ad,15279485-f914-41ff-b80c-d7ca3017dd79,Brightspark Capital Partners Inc.,Verticals::Saas,,true,,public
107f91e6-ba38-4ae5-9527-e237fa5c7a3b,b4209eeb-1084-4120-9209-3366d1dbb42b,British Columbia Investment Management Corporation,Verticals::Infrastructure,,true,,public
cc6aa689-2b34-4260-9525-aa570811ebd3,b4209eeb-1084-4120-9209-3366d1dbb42b,British Columbia Investment Management Corporation,Verticals::CleanTech,,true,,public
363e0024-b42d-43be-8546-a52a3221d9a6,7f02ed50-98bc-4d35-8265-6851cf8c6c61,Build Ventures,Verticals::MarketingTech,,true,,public
8f4875c2-0563-4448-967c-3045ea1c43c9,7f02ed50-98bc-4d35-8265-6851cf8c6c61,Build Ventures,Verticals::EdTech,,true,,public
2fda5135-9f90-4e81-b485-95ca37623a56,7f02ed50-98bc-4d35-8265-6851cf8c6c61,Build Ventures,Verticals::CleanTech,,true,,public
2858fcd6-b290-473c-afd0-faba1bec242d,7f02ed50-98bc-4d35-8265-6851cf8c6c61,Build Ventures,Verticals::AdTech,,true,,public
dff76ceb-ec80-49de-9d6f-7e56e01a11fb,7f02ed50-98bc-4d35-8265-6851cf8c6c61,Build Ventures,Verticals::FinTech,,true,,public
f30dd54f-feb4-4a17-9a16-49eb1e4df357,7f02ed50-98bc-4d35-8265-6851cf8c6c61,Build Ventures,Verticals::HealthTech,,true,,public
a45c50bd-cc5c-4f04-9c7b-e80679ed83a4,7f02ed50-98bc-4d35-8265-6851cf8c6c61,Build Ventures,Verticals::HealthTech,,true,,public
32cf9417-33c8-4efa-8e2d-728b3f9007ba,7f02ed50-98bc-4d35-8265-6851cf8c6c61,Build Ventures,Verticals::AgTech,,true,,public
b20ec39c-e0e5-4c84-8498-64946499847e,73e478f1-3c66-41a9-b846-24b44903a8df,Campfire Capital,Verticals::ECommerce,,true,,public
8506e636-b0a3-43be-a2e2-8272e1115eec,73e478f1-3c66-41a9-b846-24b44903a8df,Campfire Capital,Verticals::Manufacturing,,true,,public
80f37366-67e0-463a-8b77-2963e92c391f,59a6e497-63ad-4929-9012-4cdc61b9a905,Capital Financière agricole inc.,Verticals::AgTech,,true,,public
8b07bbc4-96a6-491b-ae0c-45d3249d8ed2,59a6e497-63ad-4929-9012-4cdc61b9a905,Capital Financière agricole inc.,Verticals::LifeSciences,,true,,public
c2980d75-e13c-4190-88fa-a6901ba276c3,871de8e6-8ea5-4e9e-b34c-e6fe71380d84,Capital régional et coopératif Desjardins (CRCD),Verticals::MarketingTech,,true,,public
9357d5d0-88fd-4d08-ab00-c741e35865d7,871de8e6-8ea5-4e9e-b34c-e6fe71380d84,Capital régional et coopératif Desjardins (CRCD),Verticals::EdTech,,true,,public
3b1a18b9-eb8e-4760-ae59-1a1d2eb83de6,871de8e6-8ea5-4e9e-b34c-e6fe71380d84,Capital régional et coopératif Desjardins (CRCD),Verticals::AdTech,,true,,public
2f025a17-190f-48fb-b4f1-6a0b98bae15a,871de8e6-8ea5-4e9e-b34c-e6fe71380d84,Capital régional et coopératif Desjardins (CRCD),Verticals::FinTech,,true,,public
bde2321c-cb31-4a78-a4ec-2235b4a8bfe5,871de8e6-8ea5-4e9e-b34c-e6fe71380d84,Capital régional et coopératif Desjardins (CRCD),Verticals::CleanTech,,true,,public
785df522-f54b-4582-87ae-801116a3bd89,871de8e6-8ea5-4e9e-b34c-e6fe71380d84,Capital régional et coopératif Desjardins (CRCD),Verticals::InsurTech,,true,,public
c55cfe7a-4f0d-4145-ad5b-cbfc5134b71b,871de8e6-8ea5-4e9e-b34c-e6fe71380d84,Capital régional et coopératif Desjardins (CRCD),Verticals::AgTech,,true,,public
35589200-1215-49d1-a45b-83c7a8608db4,871de8e6-8ea5-4e9e-b34c-e6fe71380d84,Capital régional et coopératif Desjardins (CRCD),Verticals::HealthTech,,true,,public
dc244468-acbf-4aef-b307-1259d194127a,3a667541-2d90-435d-851b-88c7f4d9124d,Celtic House Venture Partners Inc.,Verticals::MarketingTech,,true,,public
70fb7cc9-3ea6-4659-a93f-206816e167e1,3a667541-2d90-435d-851b-88c7f4d9124d,Celtic House Venture Partners Inc.,Verticals::EdTech,,true,,public
53990142-342e-44fd-b0d8-1a6291f4c642,3a667541-2d90-435d-851b-88c7f4d9124d,Celtic House Venture Partners Inc.,Verticals::AdTech,,true,,public
e02718cd-655b-442e-8d65-66e0e1c000b4,3a667541-2d90-435d-851b-88c7f4d9124d,Celtic House Venture Partners Inc.,Verticals::FinTech,,true,,public
aead34cd-27da-4425-9197-a8f4500e4bfc,3a667541-2d90-435d-851b-88c7f4d9124d,Celtic House Venture Partners Inc.,Verticals::CleanTech,,true,,public
52de280d-0339-4653-9f3d-80c86e85cf7c,3a667541-2d90-435d-851b-88c7f4d9124d,Celtic House Venture Partners Inc.,Verticals::InsurTech,,true,,public
fdff675f-13f4-4329-9c4e-288a83b9f6b5,3a667541-2d90-435d-851b-88c7f4d9124d,Celtic House Venture Partners Inc.,Verticals::AgTech,,true,,public
bea1acf1-ce3f-4058-bce7-c8752cbd39ba,3a667541-2d90-435d-851b-88c7f4d9124d,Celtic House Venture Partners Inc.,Verticals::HealthTech,,true,,public
bc09ca7b-cc09-4e3f-8620-01801892b366,53852c69-2edd-417f-befc-99c5efc5889f,Chrysalix Venture Capital,Verticals::3DPrinting,,true,,public
5764ebdd-c834-4dc7-aa44-02f57c7e397c,53852c69-2edd-417f-befc-99c5efc5889f,Chrysalix Venture Capital,Verticals::Infrastructure,,true,,public
bd11f143-4329-4744-988c-b9493e70f8db,53852c69-2edd-417f-befc-99c5efc5889f,Chrysalix Venture Capital,Verticals::CleanTech,,true,,public
5c8a852c-d80b-44b8-8d21-1037921ddea7,3313497f-b661-4d71-b697-a0c015129edf,CTI Life Sciences,Verticals::HealthTech,,true,,public
148e3792-c1c6-4797-bbe8-eb7a70f8387d,c5e50a96-e0c7-4736-b0d7-c253b727a5d1,Cycle Capital Management (CCM) Inc.,Verticals::InternetOfThings,,true,,public
1a1053bc-8f8f-4b0b-9732-e9503d8e2585,c5e50a96-e0c7-4736-b0d7-c253b727a5d1,Cycle Capital Management (CCM) Inc.,Verticals::CleanTech,,true,,public
f4d4934c-1c12-4824-b498-a555d781104f,c5e50a96-e0c7-4736-b0d7-c253b727a5d1,Cycle Capital Management (CCM) Inc.,Verticals::BigData,,true,,public
81ac866b-12bc-47f5-979c-701d1d3b0d40,c5e50a96-e0c7-4736-b0d7-c253b727a5d1,Cycle Capital Management (CCM) Inc.,Verticals::AgTech,,true,,public
0c810ec2-c80c-4143-b854-34683ef33024,7a6c800d-73b2-483e-b034-39320b381d50,Diagram Ventures GP INC.,Verticals::FinTech,,true,,public
6ae4cd49-edf6-43b6-9032-97aae699f829,7a6c800d-73b2-483e-b034-39320b381d50,Diagram Ventures GP INC.,Verticals::InsurTech,,true,,public
1cfe6811-f5b1-40ff-8c6b-8a3c717c534f,7a6c800d-73b2-483e-b034-39320b381d50,Diagram Ventures GP INC.,Verticals::HealthTech,,true,,public
6fa9b883-ac43-49c5-88db-88e5d4bc1a88,fa48e5b2-40c7-49fa-b803-684edd1e8d46,Difference Capital Financial Inc.,Verticals::MarketingTech,,true,,public
bbd7fe8c-6b5d-4d20-b946-26ece93d2cd1,fa48e5b2-40c7-49fa-b803-684edd1e8d46,Difference Capital Financial Inc.,Verticals::EdTech,,true,,public
8c96929c-a723-423b-a216-f82c818f5c42,fa48e5b2-40c7-49fa-b803-684edd1e8d46,Difference Capital Financial Inc.,Verticals::CleanTech,,true,,public
4f431973-b1f4-42f7-9489-6c95c78b0e97,fa48e5b2-40c7-49fa-b803-684edd1e8d46,Difference Capital Financial Inc.,Verticals::FinTech,,true,,public
d08fe9f2-9f14-4ced-b90e-f475a22605cd,fa48e5b2-40c7-49fa-b803-684edd1e8d46,Difference Capital Financial Inc.,Verticals::InsurTech,,true,,public
8e70ee44-4030-4d03-b973-b10727d74127,fa48e5b2-40c7-49fa-b803-684edd1e8d46,Difference Capital Financial Inc.,Verticals::HealthTech,,true,,public
b5522b42-664b-44da-be00-913ffb4e818b,fa48e5b2-40c7-49fa-b803-684edd1e8d46,Difference Capital Financial Inc.,Verticals::AgTech,,true,,public
e47928d7-9a20-4fbd-8241-ff0bf208b548,2f7f44dc-3b84-4bb3-b1f6-01228fa92be6,Discovery Capital,Verticals::HealthTech,,true,,public
78296ed5-55aa-4d0b-a137-f1cc0b5b03e4,2f7f44dc-3b84-4bb3-b1f6-01228fa92be6,Discovery Capital,Verticals::LifeSciences,,true,,public
1029ad1f-f49f-4f20-a66a-06843f760180,2f7f44dc-3b84-4bb3-b1f6-01228fa92be6,Discovery Capital,Verticals::CleanTech,,true,,public
a6ef7de7-887e-4721-a686-a6029abb75f3,2f7f44dc-3b84-4bb3-b1f6-01228fa92be6,Discovery Capital,Verticals::MarketingTech,,true,,public
4052ce50-04f3-447f-adbe-909ae189510f,2f7f44dc-3b84-4bb3-b1f6-01228fa92be6,Discovery Capital,Verticals::EdTech,,true,,public
31901204-da77-4312-8235-cb8d1de1dd6e,2f7f44dc-3b84-4bb3-b1f6-01228fa92be6,Discovery Capital,Verticals::AdTech,,true,,public
897f4335-cc3d-4cea-87d8-a4448467f0e3,f11e171e-847a-4e9d-90be-d8a4020fcaec,Echo Capital Inc,Verticals::ECommerce,,true,,public
04276243-cfe1-4c2e-9071-d80cd9fb16ac,f11e171e-847a-4e9d-90be-d8a4020fcaec,Echo Capital Inc,Verticals::Manufacturing,,true,,public
f48c708b-92fd-46a9-ba92-75731fc772c1,7ad14354-1181-4f2a-ae9d-97c664b8c090,"EdgeStone Capital Partners, Inc.",Verticals::Manufacturing,,true,,public
b81b4769-fb40-4829-b945-155d0a30303e,7ad14354-1181-4f2a-ae9d-97c664b8c090,"EdgeStone Capital Partners, Inc.",Verticals::FinTech,,true,,public
c94c6c3e-fa90-496b-b2ef-2cf534f85836,7ad14354-1181-4f2a-ae9d-97c664b8c090,"EdgeStone Capital Partners, Inc.",Verticals::ECommerce,,true,,public
7c052e17-5edc-4ed6-83e9-aa9256646e46,e16c6454-94c3-40a9-9b3b-208b0847cca4,Emerald Technology Ventures Inc.,Verticals::CleanTech,,true,,public
6beee946-c116-412d-927a-0d590f900cdb,e16c6454-94c3-40a9-9b3b-208b0847cca4,Emerald Technology Ventures Inc.,Verticals::AgTech,,true,,public
d8fb52f3-3547-4e57-95c7-9421459de713,e16c6454-94c3-40a9-9b3b-208b0847cca4,Emerald Technology Ventures Inc.,Verticals::Nanotechnology,,true,,public
f320bb84-969c-4454-a126-1135aad2c714,e16c6454-94c3-40a9-9b3b-208b0847cca4,Emerald Technology Ventures Inc.,Verticals::Manufacturing,,true,,public
2a3e6dc0-8168-40d2-8196-62465e4c6122,eea44814-0770-42ed-8821-1dbe342ea266,Emerillon Capital Inc.,Verticals::HealthTech,,true,,public
bc24d958-ac55-4d36-95af-0ec57889d99c,eea44814-0770-42ed-8821-1dbe342ea266,Emerillon Capital Inc.,Verticals::AudioTech,,true,,public
1b389be5-5d5b-413b-85a6-b32652f87961,eea44814-0770-42ed-8821-1dbe342ea266,Emerillon Capital Inc.,Verticals::InternetOfThings,,true,,public
4dfcb208-62e3-483f-98f8-4923ba3ba69e,eea44814-0770-42ed-8821-1dbe342ea266,Emerillon Capital Inc.,Verticals::Infrastructure,,true,,public
0df5f5ca-754f-4b8c-be6a-daa39abb8459,eea44814-0770-42ed-8821-1dbe342ea266,Emerillon Capital Inc.,Verticals::RoboticsAndDrones,,true,,public
8ccda7d1-6ae4-4511-b056-75f6345d56bf,eea44814-0770-42ed-8821-1dbe342ea266,Emerillon Capital Inc.,Verticals::ArtificialIntelligenceAndMachineLearning,,true,,public
21a7a04f-5d82-4f87-818e-3ac6c6ce2962,eea44814-0770-42ed-8821-1dbe342ea266,Emerillon Capital Inc.,Verticals::Mobile,,true,,public
a8aebbf2-32c7-44fd-a4f1-7a97dbc90d2c,3f078c50-df1f-4ac7-a683-65bc77a63bbb,EnerTech Capital,Verticals::CleanTech,,true,,public
1e343ae2-4d31-4895-b6ff-d7155b89ad58,3f078c50-df1f-4ac7-a683-65bc77a63bbb,EnerTech Capital,Verticals::AgTech,,true,,public
06159dcf-2f7f-44d8-a6bf-9f458a87125a,3f078c50-df1f-4ac7-a683-65bc77a63bbb,EnerTech Capital,Verticals::Manufacturing,,true,,public
485b83a8-0643-44ff-87b3-e915e83812a2,3f078c50-df1f-4ac7-a683-65bc77a63bbb,EnerTech Capital,Verticals::Nanotechnology,,true,,public
5882bdfc-cf3a-4302-a489-cd8a041b5c9a,3f078c50-df1f-4ac7-a683-65bc77a63bbb,EnerTech Capital,Verticals::RoboticsAndDrones,,true,,public
a7372b18-1b5a-4588-889a-83d6c5dc8e42,3f078c50-df1f-4ac7-a683-65bc77a63bbb,EnerTech Capital,Verticals::ArtificialIntelligenceAndMachineLearning,,true,,public
bb6e450a-b82a-4fdc-8f8e-83f80bbb4194,0fc0fc53-ca0b-4fe3-a846-8b569a2b4dfc,Entrepia Canada Inc.,Verticals::HealthTech,,true,,public
e716c371-1051-4016-9ebe-287471447f23,0fc0fc53-ca0b-4fe3-a846-8b569a2b4dfc,Entrepia Canada Inc.,Verticals::AdTech,,true,,public
cd72bfde-8025-49f1-b71e-5b407e7549fc,0fc0fc53-ca0b-4fe3-a846-8b569a2b4dfc,Entrepia Canada Inc.,Verticals::FinTech,,true,,public
9fa80c9f-cca5-4149-bec3-ac93c60b2a39,0fc0fc53-ca0b-4fe3-a846-8b569a2b4dfc,Entrepia Canada Inc.,Verticals::AgTech,,true,,public
9c581ae7-c242-4752-bb87-65bad61b75e3,0fc0fc53-ca0b-4fe3-a846-8b569a2b4dfc,Entrepia Canada Inc.,Verticals::Nanotechnology,,true,,public
9ff74a62-befd-4916-9d19-1c8bc6d14804,0fc0fc53-ca0b-4fe3-a846-8b569a2b4dfc,Entrepia Canada Inc.,Verticals::CleanTech,,true,,public
8099c10b-c5ab-4f6c-874b-37af90f5e111,0fc0fc53-ca0b-4fe3-a846-8b569a2b4dfc,Entrepia Canada Inc.,Verticals::EdTech,,true,,public
bfbd8e35-6ceb-4382-a1e5-c56c04ac2cb7,0fc0fc53-ca0b-4fe3-a846-8b569a2b4dfc,Entrepia Canada Inc.,Verticals::AudioTech,,true,,public
ddae22a2-daca-475d-a78a-bcc372615bd2,0fc0fc53-ca0b-4fe3-a846-8b569a2b4dfc,Entrepia Canada Inc.,Verticals::InsurTech,,true,,public
8b5003db-cb8e-4787-a0c8-7dceb2120c9f,0fc0fc53-ca0b-4fe3-a846-8b569a2b4dfc,Entrepia Canada Inc.,Verticals::MarketingTech,,true,,public
839b8e48-1b4d-49fe-aafc-44628d478901,0fc0fc53-ca0b-4fe3-a846-8b569a2b4dfc,Entrepia Canada Inc.,Verticals::LifeSciences,,true,,public
f1002c6c-ee41-44bb-ba49-49a6ee7d20c4,499f9e5c-dc1b-4350-a2c9-de1878bbc6cc,Evok Innovations Inc.,Verticals::CleanTech,,true,,public
a3f825da-a18f-420a-a053-e5c88c892236,499f9e5c-dc1b-4350-a2c9-de1878bbc6cc,Evok Innovations Inc.,Verticals::HealthTech,,true,,public
cea00743-e654-4c2a-8e0e-bdf66d52a980,7b021f5f-5721-4db1-8f3d-f310b19e4a92,Extreme Venture Partners,Verticals::AdTech,,true,,public
613b8bd8-e27b-4434-a5d9-2055607a44d0,7b021f5f-5721-4db1-8f3d-f310b19e4a92,Extreme Venture Partners,Verticals::FinTech,,true,,public
ce1f61c5-8c40-49e9-9018-f82b2878fe4c,7b021f5f-5721-4db1-8f3d-f310b19e4a92,Extreme Venture Partners,Verticals::AgTech,,true,,public
f4bbb4e1-ae1e-44be-b430-bd105b28f138,7b021f5f-5721-4db1-8f3d-f310b19e4a92,Extreme Venture Partners,Verticals::Nanotechnology,,true,,public
54615797-4702-4fee-a71c-2a4622295aa3,7b021f5f-5721-4db1-8f3d-f310b19e4a92,Extreme Venture Partners,Verticals::CleanTech,,true,,public
abf9c16b-87db-4aff-b3da-c75aef24db04,7b021f5f-5721-4db1-8f3d-f310b19e4a92,Extreme Venture Partners,Verticals::EdTech,,true,,public
972b9a06-2d7f-4c94-8b53-a90f8046396e,7b021f5f-5721-4db1-8f3d-f310b19e4a92,Extreme Venture Partners,Verticals::AudioTech,,true,,public
39b252a6-4253-470c-96f3-0c2e09a0a224,7b021f5f-5721-4db1-8f3d-f310b19e4a92,Extreme Venture Partners,Verticals::InsurTech,,true,,public
9eec2d77-d6da-4a10-b730-d021d5bc9faa,7b021f5f-5721-4db1-8f3d-f310b19e4a92,Extreme Venture Partners,Verticals::MarketingTech,,true,,public
4cfee17b-a716-446d-bf7a-42ea112b0afa,7b021f5f-5721-4db1-8f3d-f310b19e4a92,Extreme Venture Partners,Verticals::HealthTech,,true,,public
6f909fe0-d288-4ece-9da5-c96481eb86b1,7b021f5f-5721-4db1-8f3d-f310b19e4a92,Extreme Venture Partners,Verticals::CleanTech,,true,,public
0cbd1093-c700-43f7-94f4-14a9ae3cd5ad,a2eb0c28-9eab-4d42-90df-8421ccaa350b,Ferst Capital Partners INC.,Verticals::FinTech,,true,,public
c4a5e172-4d4e-4d3b-beac-3f38574705ca,866bd8f1-aa88-4458-a04a-8838046101c8,Fight Against Cancer Innovation Trust (FACIT),Verticals::HealthTech,,true,,public
b42f69e0-a4d1-4157-b76a-f4f180c2b85b,866bd8f1-aa88-4458-a04a-8838046101c8,Fight Against Cancer Innovation Trust (FACIT),Verticals::LifeSciences,,true,,public
129354fb-af34-450d-bb54-a3b73bacb05e,46ebf92b-bb22-4e8a-a195-2b6b7da6b604,Five Corners Capital,Verticals::HealthTech,,true,,public
2be8aa16-b1fe-4758-95ee-3cd281e038d7,46ebf92b-bb22-4e8a-a195-2b6b7da6b604,Five Corners Capital,Verticals::LifeSciences,,true,,public
8bb32b1d-3638-4e1e-8c19-1f5b06479be6,37966ed3-1dd5-4bdc-8d9d-551f028f7ec2,Foundation Equity Corporation,Verticals::ECommerce,,true,,public
5cea2eba-96a6-4193-85d4-f3b028856ee9,37966ed3-1dd5-4bdc-8d9d-551f028f7ec2,Foundation Equity Corporation,Verticals::CleanTech,,true,,public
c6a6017a-00a2-4dfb-a2fa-c5e516794392,37966ed3-1dd5-4bdc-8d9d-551f028f7ec2,Foundation Equity Corporation,Verticals::Manufacturing,,true,,public
ae19b5dd-d484-401d-866c-253774631196,c863337c-2b95-4a6b-8fbd-013b836302f8,Generation Ventures,Verticals::ArtificialIntelligenceAndMachineLearning,,true,,public
fcb1e2a9-db72-4d6a-8891-f6d4e998c753,c863337c-2b95-4a6b-8fbd-013b836302f8,Generation Ventures,Verticals::BigData,,true,,public
128f529f-d671-4e6e-ab58-274dd4b2dd7a,c863337c-2b95-4a6b-8fbd-013b836302f8,Generation Ventures,Verticals::InternetOfThings,,true,,public
462dc2f7-7fb9-494a-82ff-ac72d68a7eaf,c863337c-2b95-4a6b-8fbd-013b836302f8,Generation Ventures,Verticals::MarketingTech,,true,,public
c3bd14d2-fa58-43bf-8ed3-4f91e9e41b85,c863337c-2b95-4a6b-8fbd-013b836302f8,Generation Ventures,Verticals::AdTech,,true,,public
9dd9e57c-1ca4-4f0f-a108-11d74c52a683,c863337c-2b95-4a6b-8fbd-013b836302f8,Generation Ventures,Verticals::FinTech,,true,,public
0d7b440c-aebf-4f3b-89ca-68cf55eeaa2b,c863337c-2b95-4a6b-8fbd-013b836302f8,Generation Ventures,Verticals::ECommerce,,true,,public
912eadf1-a9e3-4db6-ae56-48727cf2508d,a69e0703-a96c-4d63-a6d3-d86f7f190781,Genesys Capital,Verticals::HealthTech,,true,,public
a1b217e1-5333-4fdc-ad85-af7feab08248,a69e0703-a96c-4d63-a6d3-d86f7f190781,Genesys Capital,Verticals::LifeSciences,,true,,public
70366605-7c0e-40ae-8082-fdbcf2e5afa1,8093adda-b891-4d99-87c4-64cbcc17e2ba,Genwealth Ventures,Verticals::AdTech,,true,,public
1a073984-8c1c-4414-8bd6-657a07766d26,8093adda-b891-4d99-87c4-64cbcc17e2ba,Genwealth Ventures,Verticals::FinTech,,true,,public
e8905191-639e-46db-830a-3cfa7bba1a4b,8093adda-b891-4d99-87c4-64cbcc17e2ba,Genwealth Ventures,Verticals::AgTech,,true,,public
5821d068-1df7-4e4b-9fd4-0b2103665184,8093adda-b891-4d99-87c4-64cbcc17e2ba,Genwealth Ventures,Verticals::Nanotechnology,,true,,public
9581bce4-bfd1-4b8a-9f75-e025c8118de2,8093adda-b891-4d99-87c4-64cbcc17e2ba,Genwealth Ventures,Verticals::CleanTech,,true,,public
6b09603b-bce7-46e4-ac16-fc9e5626919f,8093adda-b891-4d99-87c4-64cbcc17e2ba,Genwealth Ventures,Verticals::EdTech,,true,,public
c9c641a9-a59a-4327-9147-d6f699b0e52c,8093adda-b891-4d99-87c4-64cbcc17e2ba,Genwealth Ventures,Verticals::AudioTech,,true,,public
bc67db72-76bb-4245-9093-d88a7fb091e9,8093adda-b891-4d99-87c4-64cbcc17e2ba,Genwealth Ventures,Verticals::InsurTech,,true,,public
9f2fc6ab-35bf-42f4-82b1-d6f72319cea8,8093adda-b891-4d99-87c4-64cbcc17e2ba,Genwealth Ventures,Verticals::MarketingTech,,true,,public
d55d27a9-9001-43ce-85f0-652cfbf150c7,8093adda-b891-4d99-87c4-64cbcc17e2ba,Genwealth Ventures,Verticals::HealthTech,,true,,public
0579377b-5eb8-419d-826d-3cae47cf4687,8093adda-b891-4d99-87c4-64cbcc17e2ba,Genwealth Ventures,Verticals::CleanTech,,true,,public
8903986d-604f-4189-8df7-fb222529fade,1be9e6c4-9a96-4a28-bf19-b76d83c9b020,Georgian Partners,Verticals::Saas,,true,,public
38051427-9c3f-4b5c-96b1-cab54d1f13f8,1be9e6c4-9a96-4a28-bf19-b76d83c9b020,Georgian Partners,Verticals::ArtificialIntelligenceAndMachineLearning,,true,,public
78734103-d43d-4ac5-bcb7-5ee8bcd7f247,1be9e6c4-9a96-4a28-bf19-b76d83c9b020,Georgian Partners,Verticals::CyberSecurity,,true,,public
6da3b5d7-09b5-409d-acbc-3c29daa0988e,1be9e6c4-9a96-4a28-bf19-b76d83c9b020,Georgian Partners,Verticals::EphemeralContent,,true,,public
530cc908-321c-412d-ab5d-eae244e08502,8b81bf38-527c-4bce-9426-9fdeaba1da01,Gibraltar Ventures,Verticals::Saas,,true,,public
bcb628ae-7b94-4ab8-99e2-4f00a59720eb,8b81bf38-527c-4bce-9426-9fdeaba1da01,Gibraltar Ventures,Verticals::InternetOfThings,,true,,public
e55a91c9-cf56-42f8-b849-2e8a9ddafb41,8b81bf38-527c-4bce-9426-9fdeaba1da01,Gibraltar Ventures,Verticals::Nanotechnology,,true,,public
59020670-c467-44cc-afe8-6871ff6c0c28,8b81bf38-527c-4bce-9426-9fdeaba1da01,Gibraltar Ventures,Verticals::Manufacturing,,true,,public
f63d68fe-bce0-4b00-9a4a-8fd2268558b6,8b81bf38-527c-4bce-9426-9fdeaba1da01,Gibraltar Ventures,Verticals::AudioTech,,true,,public
15203583-961e-44dd-be3c-6c55441ca8c0,8b81bf38-527c-4bce-9426-9fdeaba1da01,Gibraltar Ventures,Verticals::ArtificialIntelligenceAndMachineLearning,,true,,public
3a396748-4840-4e37-b58e-f8a7ca7d1edd,8b81bf38-527c-4bce-9426-9fdeaba1da01,Gibraltar Ventures,Verticals::CleanTech,,true,,public
14d7ddda-88d9-4601-bbb7-8e2240dd2475,8b81bf38-527c-4bce-9426-9fdeaba1da01,Gibraltar Ventures,Verticals::FinTech,,true,,public
f4f5f46f-49cc-4db7-a06b-81b2b439e3e9,8b81bf38-527c-4bce-9426-9fdeaba1da01,Gibraltar Ventures,Verticals::ECommerce,,true,,public
44380bc0-9498-45f7-98e7-458dfe633629,f8bc5981-e0f4-4aee-bd30-79501af355aa,Golden Venture Partners,Verticals::Saas,,true,,public
ae205920-3ebf-45b2-b4b8-40498b424b92,f8bc5981-e0f4-4aee-bd30-79501af355aa,Golden Venture Partners,Verticals::Mobile,,true,,public
ae205920-3ebf-45b2-b4b8-40498b424b93,f8bc5981-e0f4-4aee-bd30-79501af355aa,Golden Venture Partners,Verticals::EdTech,,true,,public
ae205920-3ebf-45b2-b4b8-40498b424b94,f8bc5981-e0f4-4aee-bd30-79501af355aa,Golden Venture Partners,Verticals::AdTech,,true,,public
ae205920-3ebf-45b2-b4b8-40498b424b95,f8bc5981-e0f4-4aee-bd30-79501af355aa,Golden Venture Partners,Verticals::FinTech,,true,,public
ae205920-3ebf-45b2-b4b8-40498b424b96,f8bc5981-e0f4-4aee-bd30-79501af355aa,Golden Venture Partners,Verticals::MarketingTech,,true,,public
ae205920-3ebf-45b2-b4b8-40498b424b97,f8bc5981-e0f4-4aee-bd30-79501af355aa,Golden Venture Partners,Verticals::ECommerce,,true,,public
ae205920-3ebf-45b2-b4b8-40498b424b98,f8bc5981-e0f4-4aee-bd30-79501af355aa,Golden Venture Partners,Verticals::RoboticsAndDrones,,true,,public
ae205920-3ebf-45b2-b4b8-40498b424b99,f8bc5981-e0f4-4aee-bd30-79501af355aa,Golden Venture Partners,Verticals::HealthTech,,true,,public
0d0a2998-2cf6-4e43-a3bc-ba176916a7f1,c65708d1-8cae-4dc0-88d4-8ba893542257,Green Century Investment Ltd,Verticals::CleanTech,,true,,public
c1d4a7be-0a56-4dfc-9d37-96eb86643013,c65708d1-8cae-4dc0-88d4-8ba893542257,Green Century Investment Ltd,Verticals::LifeSciences,,true,,public
77ed59c0-9499-41e0-8202-afa26bb97724,c65708d1-8cae-4dc0-88d4-8ba893542257,Green Century Investment Ltd,Verticals::HealthTech,,true,,public
61444e8b-f21e-488f-9b2f-7958c839defb,c65708d1-8cae-4dc0-88d4-8ba893542257,Green Century Investment Ltd,Verticals::WearablesAndQuantifiedSelf,,true,,public
f13a2b3c-7f27-4f0a-9c40-1af01ddd95fe,c65708d1-8cae-4dc0-88d4-8ba893542257,Green Century Investment Ltd,Verticals::LohasAndWellness,,true,,public
fefccaed-6e1b-481e-bd78-43775c67bd07,0596bf01-158a-40eb-b3f2-179873546737,Greensoil Investments,Verticals::AgTech,,true,,public
91fd0dfd-eca4-4e77-b767-a70df899e442,0596bf01-158a-40eb-b3f2-179873546737,Greensoil Investments,Verticals::CleanTech,,true,,public
4c154a0c-61ca-4b4d-8da2-2bce2de95819,0596bf01-158a-40eb-b3f2-179873546737,Greensoil Investments,Verticals::Infrastructure,,true,,public
2f366dc1-8c02-470e-9ee5-fa8c16123391,e8f19165-70ae-44c9-887e-1b5697ee0a17,GrowthWorks Atlantic Venture Fund Ltd.,Verticals::FinTech,,true,,public
34879570-140f-40cc-a28a-38472e28f265,e8f19165-70ae-44c9-887e-1b5697ee0a17,GrowthWorks Atlantic Venture Fund Ltd.,Verticals::AdTech,,true,,public
34879570-140f-40cc-a28a-38472e28f266,e8f19165-70ae-44c9-887e-1b5697ee0a17,GrowthWorks Atlantic Venture Fund Ltd.,Verticals::HealthTech,,true,,public
34879570-140f-40cc-a28a-38472e28f267,e8f19165-70ae-44c9-887e-1b5697ee0a17,GrowthWorks Atlantic Venture Fund Ltd.,Verticals::CleanTech,,true,,public
34879570-140f-40cc-a28a-38472e28f268,e8f19165-70ae-44c9-887e-1b5697ee0a17,GrowthWorks Atlantic Venture Fund Ltd.,Verticals::AgTech,,true,,public
34879570-140f-40cc-a28a-38472e28f269,e8f19165-70ae-44c9-887e-1b5697ee0a17,GrowthWorks Atlantic Venture Fund Ltd.,Verticals::MarketingTech,,true,,public
34879570-140f-40cc-a28a-38472e28f270,e8f19165-70ae-44c9-887e-1b5697ee0a17,GrowthWorks Atlantic Venture Fund Ltd.,Verticals::AudioTech,,true,,public
b069cbce-3e99-460d-9b11-9f9f75ccc933,03e040cc-cade-4218-ba55-a5c6287b7a44,GrowthWorks Capital (GP) Ltd.,Verticals::LifeSciences,,true,,public
791815e6-6840-4f76-8212-dca649bc4883,03e040cc-cade-4218-ba55-a5c6287b7a44,GrowthWorks Capital (GP) Ltd.,Verticals::CleanTech,,true,,public
791815e6-6840-4f76-8212-dca649bc4884,03e040cc-cade-4218-ba55-a5c6287b7a44,GrowthWorks Capital (GP) Ltd.,Verticals::InternetOfThings,,true,,public
791815e6-6840-4f76-8212-dca649bc4885,03e040cc-cade-4218-ba55-a5c6287b7a44,GrowthWorks Capital (GP) Ltd.,Verticals::HealthTech,,true,,public
791815e6-6840-4f76-8212-dca649bc4886,03e040cc-cade-4218-ba55-a5c6287b7a44,GrowthWorks Capital (GP) Ltd.,Verticals::FinTech,,true,,public
791815e6-6840-4f76-8212-dca649bc4887,03e040cc-cade-4218-ba55-a5c6287b7a44,GrowthWorks Capital (GP) Ltd.,Verticals::EdTech,,true,,public
27c827b6-74c5-4bed-815e-c5a33cd1e93f,03e040cc-cade-4218-ba55-a5c6287b7a44,GrowthWorks Capital (GP) Ltd.,Verticals::CyberSecurity,,true,,public
fb821e10-b112-402f-94bc-bc78539d97b8,03e040cc-cade-4218-ba55-a5c6287b7a44,GrowthWorks Capital (GP) Ltd.,Verticals::AgTech,,true,,public
1e2ed753-b1c4-4bfe-b6d5-b320b873a05a,03e040cc-cade-4218-ba55-a5c6287b7a44,GrowthWorks Capital (GP) Ltd.,Verticals::AdTech,,true,,public
c9d8a59f-5fa5-4bf7-a9a4-b69b1505d64c,552acc72-c5d8-473b-a081-caecf8c9b936,iGan Ventures Inc.,Verticals::HealthTech,,true,,public
22305786-c352-49b5-b898-bdd1b34fcc22,552acc72-c5d8-473b-a081-caecf8c9b936,iGan Ventures Inc.,Verticals::Saas,,true,,public
c698c19a-e5da-4d43-8b78-2ea6240cb646,552acc72-c5d8-473b-a081-caecf8c9b936,iGan Ventures Inc.,Verticals::ECommerce,,true,,public
4ea898e2-efa1-4887-a042-56546fe06ed0,552acc72-c5d8-473b-a081-caecf8c9b936,iGan Ventures Inc.,Verticals::ArtificialIntelligenceAndMachineLearning,,true,,public
e4def017-0396-47cd-a166-64ef467d5035,552acc72-c5d8-473b-a081-caecf8c9b936,iGan Ventures Inc.,Verticals::BigData,,true,,public
4fc5a485-159a-41f4-b1a7-429deef7f617,db2d6fb8-09db-495b-8853-109b532dfe2f,Inerjys Ventures Inc.,Verticals::CleanTech,,true,,public
f31d660c-d4ed-4aa8-ab79-7ad5aba2a861,cdbd2c6c-75ed-47ad-a0fd-1b0971fa29e3,Information Venture Partners Inc.,Verticals::FinTech,,true,,public
3f1b5d09-7daa-4e88-95db-7e51f70a5af2,cdbd2c6c-75ed-47ad-a0fd-1b0971fa29e3,Information Venture Partners Inc.,Verticals::Saas,,true,,public
4aa5f5b7-33a3-4a74-a507-454406026a19,47aa8156-c378-4693-a775-36876278c038,Innovacorp,Verticals::CleanTech,,true,,public
f105e0e0-9799-4efb-9d69-f956fc10d5f0,47aa8156-c378-4693-a775-36876278c038,Innovacorp,Verticals::LifeSciences,,true,,public
43f733d7-3098-4b15-8d7d-cd9485ed0598,47aa8156-c378-4693-a775-36876278c038,Innovacorp,Verticals::RoboticsAndDrones,,true,,public
f634712f-dacc-48fe-95a2-7daf2c1ed905,47aa8156-c378-4693-a775-36876278c038,Innovacorp,Verticals::FinTech,,true,,public
b4ffa9d4-fc4c-45c6-acfe-e111fb9669cf,47aa8156-c378-4693-a775-36876278c038,Innovacorp,Verticals::AgTech,,true,,public
3fb82ce3-48ff-4f4e-b7d1-2904937cc11c,47aa8156-c378-4693-a775-36876278c038,Innovacorp,Verticals::AdTech,,true,,public
94402367-6818-422c-b541-2fbe38182ad4,47aa8156-c378-4693-a775-36876278c038,Innovacorp,Verticals::EdTech,,true,,public
05267003-3f32-4f2a-9e55-e90d51b53d39,47aa8156-c378-4693-a775-36876278c038,Innovacorp,Verticals::MarketingTech,,true,,public
38d8fd73-9ae6-4894-ab7f-e33cb62fe6b1,47aa8156-c378-4693-a775-36876278c038,Innovacorp,Verticals::AudioTech,,true,,public
dd8f8441-65b3-4b09-818d-7cbd52c38c0a,626291b7-c484-4f4a-9e01-fbcb81cdc2bb,iNovia Capital,Verticals::AdTech,,true,,public
4816c737-02a4-4fef-bd46-70ead0794973,626291b7-c484-4f4a-9e01-fbcb81cdc2bb,iNovia Capital,Verticals::MarketingTech,,true,,public
e0a77a12-4e78-4699-a8a2-b728d88f5063,f5e661b6-3d7e-43ec-8701-0a6265066b1d,Kardium Investments (VCC),Verticals::HealthTech,,true,,public
bcc02073-82e3-40eb-9752-e69f2c62f824,c9792532-708e-4f68-a91b-15d1916f262a,Klass Capital,Verticals::MarketingTech,,true,,public
96cf4e5f-0947-4db4-81e9-666c4181bcc8,924d4a26-1146-4f45-b707-5ffdcdab7d2b,Laurence Capital,Verticals::MarketingTech,,true,,public
9224d7b1-f6d6-42e0-8c92-1f774a8968d0,5fdd0a2e-4bab-4812-aced-81fac1c95a0b,Leaders Fund Inc.,Verticals::ArtificialIntelligenceAndMachineLearning,,true,,public
6afdb12f-0ae7-4ab5-9ce0-0029f9650c4c,9173aff0-5266-4408-80ef-4e7203362bf8,Lumira Capital Investment Management Inc.,Verticals::HealthTech,,true,,public
734ad000-cc2b-440b-8c90-353987c278df,6f3c1d7d-f3fe-4669-9f8e-606444a64fc4,Lune Rouge,Verticals::FinTech,,true,,public
b282815a-9d42-40b4-ba55-2203c2ff2f05,302bbeb0-f579-4efa-a77d-151f22868f99,Mantella Venture Partners,Verticals::FinTech,,true,,public
b8ba26b3-6e3e-44fa-9038-e55dbc8b9deb,4fe26181-cfdd-46f4-a8d0-8bba7b1b826e,MaRS Catalyst Fund,Verticals::AgTech,,true,,public
183f6303-70f4-49fe-990b-9db4f120358f,4ed4ab8f-1795-4b13-8414-6f809b70751b,McRock Capital Corporation,Verticals::MarketingTech,,true,,public
90319988-cac5-431a-bb8b-29c6fb838aeb,0268b476-6dcd-4e94-915b-91c166ba2be8,Mistral Ventures Partners,Verticals::AdTech,,true,,public
57df4585-694f-4a18-8d2a-394f806e799d,6e94b010-6955-436e-9a04-6d89e55064eb,Mobio Technologies,Verticals::Mobile,,true,,public
3244551a-4153-4aa1-bf8e-7d0b2ca357c5,1eda0f15-3b29-497f-96a8-b32291bd3d76,Monnsoon,Verticals::BigData,,true,,public
9b091c4e-1c6d-4af6-ae79-38cbaf15c4e4,805955f4-0b05-41c5-bad1-d8acf8e928f4,Northview LifeSciences,Verticals::LifeSciences,,true,,public
b7d91ae9-b50c-4cde-a04a-d503a08adcb3,8721e346-b4e6-4913-8caf-6f398468dbd1,Northwater Capital,Verticals::Infrastructure,,true,,public
d450f1a7-d4dc-4c80-b18e-21b68e0aa90b,8043ed2e-52c3-4ccd-9b93-dfb47e734b21,OMERS Ventures,Verticals::MarketingTech,,true,,public
06723b20-1ee4-4b81-814a-124185c451a5,4172282a-84bf-4a50-a662-935ed465fd70,Ontario Capital Growth Corporation,Verticals::CleanTech,,true,,public
caea2360-0394-4213-be20-0125373c80e2,7bf6102c-a5c7-44ea-bf59-bba948194cc8,Onwave Venture Inc.,Verticals::Mobile,,true,,public
5c9a1117-4c90-4ffc-b6b5-ada413f8066d,486ffcf4-78f9-4069-a797-dc3680ac2f50,Pangaea Ventures Ltd.,Verticals::CleanTech,,true,,public
d1c667da-4835-4ebc-b87a-9ad3fb99391e,7fc7c6bd-7a8c-47c0-907d-8bdb78c64ad7,Pelorus Venture Capital General Partner Limited,Verticals::MarketingTech,,true,,public
2de2810e-d0fc-414c-868c-2113b06e5490,50b15354-baa9-4d9d-a51d-61ac238e9a3f,PFM Capital Inc.,Verticals::HealthTech,,true,,public
55adb308-ad0c-41b7-9dd6-58f0df9622b2,f35b803f-8645-41e0-b9f2-8dbfe91295b7,Plaza Ventures,Verticals::Saas,,true,,public
a7bc2a7f-a241-42a8-8261-c28138f6ebcb,4b91ec78-d87c-47a3-8d04-cc8fda1c7945,Priveq Capital Funds,Verticals::Manufacturing,,true,,public
736909b8-512a-4408-aacc-770b93e2b80c,98d7630d-1ba4-4832-a5b2-ad4cb970025e,Quark Venture,Verticals::HealthTech,,true,,public
611b28ee-f0b4-4b73-b1a7-a3e39d5bb5a1,7a9c87bb-9ade-425a-9c22-656964d2824e,Radar Capital Inc.,Verticals::InsurTech,,true,,public
0bd49ff1-7556-4d86-8dab-705a7b1b1624,9fd259a9-5269-48e4-ad0b-c387c0cedcea,RBC Venture Partners,Verticals::CyberSecurity,,true,,public
65448db6-6886-4737-9d70-711905f113d0,d000aefd-d4bd-4da7-a405-2828d2cb9276,Real Ventures,Verticals::HealthTech,,true,,public
a5ba94dd-483e-4a88-824c-389634448512,b625ec37-e1f1-41b0-9ca8-0d3ee6f415ce,RecapHealth Ventures,Verticals::HealthTech,,true,,public
3c39c1b5-5490-4b41-bd9e-1ae11af3fab2,82392cf1-d92b-46f8-9918-265a8e9ede27,Regis Duffy BioScience Fund Inc.,Verticals::HealthTech,,true,,public
41fa13ee-1f67-4cf7-928d-f232cdae745d,12524160-3f12-43af-9ed7-603b6ddb6688,Relay Ventures,Verticals::AdTech,,true,,public
7358fdc9-3096-4bf5-ac19-a34da1f8d4c3,f6d297df-78ef-46bd-bb7b-6f5c41c8921b,Renewal Funds,Verticals::CleanTech,,true,,public
3fd296dc-d723-4eab-b781-0974ed08ae0b,0271a2bd-7c58-42b1-8f60-d25c44e9a49e,Roadmap Capital Inc.,Verticals::Mobile,,true,,public
40676fdb-3736-472d-b752-319186f9b68c,31450f0c-074a-46b8-bec1-d44f9a78f693,Rogers Venture Partners,Verticals::Infrastructure,,true,,public
4a1e171e-67ad-4804-a9c2-a16b143aa7c3,78a61a82-7ded-43de-b6f6-63e26f74aebf,Rouge River Capital,Verticals::MarketingTech,,true,,public
35fbe87e-1000-49b5-b5bb-0f2e3999dadb,3c9a3d0d-6500-4c02-93a7-b2a1686490e4,Round 13 Capital,Verticals::Saas,,true,,public
d559900d-030d-40fb-bdae-ce324fc4573f,d4e04560-057c-41d7-b910-162d3cd90e75,RoyNat Capital Inc.,Verticals::FinTech,,true,,public
59a1b7f2-51d7-4365-b34a-68ae5328f91d,7c4d0b09-5b80-455c-b53b-d2045efd3701,Sanderling Ventures,Verticals::HealthTech,,true,,public
533e3f77-4345-474f-8f51-050d3ba185f6,cdab0e8d-5bc2-4dd3-9f95-896f36eb75d2,Sandstorm Gold Ltd.,Verticals::Manufacturing,,true,,public
75de26a8-0b90-4d46-8024-117a1e7bd74a,2d1be5d9-df5b-4a72-ad78-0fd35e3658c5,"ScaleUp Venture Partners, Inc.",Verticals::MarketingTech,,true,,public
642158a7-a0ce-4af5-8d82-6ab3746aaee9,527c1855-f873-4d91-a7e9-6077630320b4,Scotia Institutional Real Estate Inc.,Verticals::FinTech,,true,,public
7bdf0cd3-7b7b-4d94-b7d4-e8869d5e4b94,a2f62fdf-068c-4527-a343-1ffe75639f2f,Sectoral Asset Management Inc.,Verticals::HealthTech,,true,,public
406f9c1c-cd0f-4ecc-b198-e6dd488ec561,2d6c32b2-fa72-4d2b-a0c8-243bbe7e5a8a,Shaw Ventures,Verticals::Infrastructure,,true,,public
10fbe3d8-5131-4cee-bea6-c260b67bf65e,0c57e833-4322-4ca9-85a2-ea9379ff0a47,SIDEX Limited Partnership,Verticals::Manufacturing,,true,,public
770c6222-7450-4551-967c-97e30f4a191f,e375bbf7-ce18-466f-be9f-8e088e71387a,Six Squared Capital,Verticals::Saas,,true,,public
9eac195f-b020-48c9-a6ea-b2b0d272235b,22f77763-5019-42d5-a810-2a8e2b1066e2,Summerhill Venture Partners Management Inc.,Verticals::AdTech,,true,,public
ba5d865a-22c0-4fd5-907a-7533d39c5509,d471c6fd-9e3a-48ab-9078-f75f9f54292d,Tandem Expansion GP Inc.,Verticals::Saas,,true,,public
45ae101e-b30e-47e7-8114-064635ae4cae,d0ed4f10-7855-40aa-ad44-85469047f4ec,Tech Capital Partners,Verticals::AdTech,,true,,public
b1fba2b1-f121-47aa-9902-957d0031cc0b,fbd82b97-283c-4078-b20c-659d12819c5b,Technology Venture Corporation,Verticals::AdTech,,true,,public
afee99e0-d324-4cca-a66e-f0ec2cb62b3d,36b7cedb-b0be-4eb1-ab3a-4f0964a6cc1d,TELUS Ventures,Verticals::MarketingTech,,true,,public
9ecfa636-1216-4684-b5fb-bf3a6728c254,b3bed203-9694-4731-b7bf-ffe480b906ae,The OpenText Enterprise Apps Fund,Verticals::BigData,,true,,public
9618b204-a19a-456b-bed4-cf0c238def88,b061414f-8b16-430b-90e9-e733f94d6e30,TIMIA Capital Corporation,Verticals::FinTech,,true,,public
25cc12a0-6930-4c69-ab57-778023886be6,1609af10-095c-43d6-a8db-2659d74520e6,Top Renergy Inc.,Verticals::MarketingTech,,true,,public
2fe1f760-b425-43a4-add7-37a983797f42,102f196c-54ce-4cd9-96c9-2fb26ccd1095,Trellis Capital Corporation,Verticals::MarketingTech,,true,,public
16ea95d8-2398-44b1-b2da-1de2371272f8,977f0241-4afb-4cb7-a405-7cf5354b76d9,TVM Life Science Management Inc.,Verticals::HealthTech,,true,,public
bc6c8122-ffff-4d5c-b86c-5825291d8e79,5b390227-1dfe-4bcc-9859-61dc7b8ce99e,Vancouver Founder Fund,Verticals::ECommerce,,true,,public
7347034c-846f-4ebe-a7d3-6dcc403ab117,494a552c-7387-436f-a861-a1b70f33d4eb,Vanedge Capital,Verticals::ArtificialIntelligenceAndMachineLearning,,true,,public
02077534-a382-4079-bd12-f65ab15e4333,c6b21048-4a00-4788-b19f-ef10b598b76e,Velo Ventures (VCC) Inc.,Verticals::Manufacturing,,true,,public
31e34b5b-5c5d-4b03-a174-d44739c9a49b,97bd0dc1-b3c6-42be-9cc4-e0c763e9a23c,VentureLink Innovation Fund Inc.,Verticals::MarketingTech,,true,,public
6566d256-21d3-41b0-8e71-241e85c632c9,ddc0fec1-0091-4b07-9407-09ca665d36fc,"Versant Venture Management, LLC",Verticals::HealthTech,,true,,public
cc7be46c-3014-477e-bab6-b116cd840461,f5b6359d-6635-4e97-bc68-ae49414ffada,Version One Ventures,Verticals::FinTech,,true,,public
218bd7cf-8bb6-40c3-bc57-b50499ee889d,ce8b3a57-202b-4d2a-8a33-90f8ddcdaebf,Volaris Group Inc.,Verticals::MarketingTech,,true,,public
20c88468-6d3c-4e27-af23-d1b56c93a089,42ee742c-b7f4-4f04-988e-d6c2119f96b9,W investments,Verticals::MarketingTech,,true,,public
472f5db7-9fa4-4378-bc85-c88c8b15db3d,dbd0d00f-1969-419c-bd9a-93badde462f0,Waterloo Innovation Network LP,Verticals::Manufacturing,,true,,public
c3b05691-952a-43a6-bab9-1ffb7cfff2a4,684e50a7-0765-41a3-8036-4f4e7be5c9d9,Wellington Financial LP,Verticals::FinTech,,true,,public
46e93318-19d0-4ca8-8fb3-7d41883ae438,783c70a0-27a6-4acb-9809-93812ba44b99,Wesley Clover International Corporation,Verticals::Infrastructure,,true,,public
6fa77492-6a2a-4bb3-b87e-e35b830cd088,caef0559-e0bd-4efa-a6bd-fa4680077386,WestCap Management Ltd.,Verticals::FinTech,,true,,public
dbb14f32-3d56-446c-88b4-4419dcc273f4,bcf43e2f-5b9b-447f-84b2-66ebf866c09b,White Star Capital,Verticals::FinTech,,true,,public
28e5a346-9ee5-4d55-866c-bbbf835c420f,a1e7a4e5-8596-45d5-8300-d6cc1892b3cd,Whitecap Venture Partners,Verticals::Infrastructure,,true,,public
8b6c2cbf-bd70-4f8c-9878-9c9d61223316,1587afd0-3283-42b3-9642-15c5b98dfe3d,XPV Water Partners,Verticals::AdTech,,true,,public
83b7c0d1-c1f4-437f-a641-13c63fb4e6aa,0e4f747d-87cf-4698-ae6a-fb5b0f8f4416,YUL Ventures,Verticals::ECommerce,,true,,public
